==2734== Memcheck, a memory error detector
==2734== Copyright (C) 2002-2012, and GNU GPL'd, by Julian Seward et al.
==2734== Using Valgrind-3.8.1 and LibVEX; rerun with -h for copyright info
==2734== Command: ./Iago Black
==2734== Parent PID: 2733
==2734== 
==2734== 
==2734== HEAP SUMMARY:
==2734==     in use at exit: 48 bytes in 2 blocks
==2734==   total heap usage: 2,021 allocs, 2,019 frees, 16,200 bytes allocated
==2734== 
==2734== LEAK SUMMARY:
==2734==    definitely lost: 0 bytes in 0 blocks
==2734==    indirectly lost: 0 bytes in 0 blocks
==2734==      possibly lost: 0 bytes in 0 blocks
==2734==    still reachable: 48 bytes in 2 blocks
==2734==         suppressed: 0 bytes in 0 blocks
==2734== Reachable blocks (those to which a pointer was found) are not shown.
==2734== To see them, rerun with: --leak-check=full --show-reachable=yes
==2734== 
==2734== For counts of detected and suppressed errors, rerun with: -v
==2734== ERROR SUMMARY: 0 errors from 0 contexts (suppressed: 2 from 2)
